[{
  "objectGUID": "djsklgfsdhjlk- fdhjhg - dkfsjgfl",
  "columnName": "idCompany",
  "Type": "Integer",
  "primaryKey": true,
  "Mandatory": true,
  "deleted": false,
  "updated": false
},
  {
    "objectGUID": "djsklgfsdhjlk- fdhjhg - dkfsjgfl",
    "columnName": "yearMonth",
    "Type": "Integer",
    "primaryKey": true,
    "Mandatory": true,
    "deleted": false,
    "updated": false
  },
  {
    "objectGUID": "djsklgfsdhjlk- fdhjhg - dkfsjgfl",
    "columnName": "idCompany devrait être false",
    "Type": "String",
    "primaryKey": false,
    "Mandatory": true,
    "deleted": false,
    "updated": false
  },
  {
    "objectGUID": "djsklgfsdhjlk- fdhjhg - dkfsjgfl",
    "columnName": "idProduct",
    "Type": "Boolean",
    "primaryKey": true,
    "Mandatory": true,
    "deleted": false,
    "updated": false
  }
]
